…
x <- make_epicontacts(linelist = mers_korea_2015$linelist,
                      contacts = mers_korea_2015$contacts, 
                      directed = TRUE)
x
#> 
#> /// Epidemiological Contacts //
#> 
#>   // class: epicontacts
#>   // 162 cases in linelist; 98 contacts;  directed 
#> 
#>   // linelist
#> 
#> # A tibble: 162 × 15
#>       id   age age_class    sex        place_infect reporting_ctry
#>    <chr> <int>     <chr> <fctr>              <fctr>         <fctr>
#> 1   SK_1    68     60-69      M         Middle East    South Korea
#> 2   SK_2    63     60-69      F Outside Middle East    South Korea
#> 3   SK_3    76     70-79      M Outside Middle East    South Korea
#> 4   SK_4    46     40-49      F Outside Middle East    South Korea
#> 5   SK_5    50     50-59      M Outside Middle East    South Korea
#> 6   SK_6    71     70-79      M Outside Middle East    South Korea
#> 7   SK_7    28     20-29      F Outside Middle East    South Korea
#> 8   SK_8    46     40-49      F Outside Middle East    South Korea
#> 9   SK_9    56     50-59      M Outside Middle East    South Korea
#> 10 SK_10    44     40-49      M Outside Middle East          China
#> # ... with 152 more rows, and 9 more variables: loc_hosp <fctr>,
#> #   dt_onset <date>, dt_report <date>, week_report <fctr>,
#> #   dt_start_exp <date>, dt_end_exp <date>, dt_diag <date>,
#> #   outcome <fctr>, dt_death <date>
#> 
#>   // contacts
#> 
#> # A tibble: 98 × 4
#>     from     to       exposure diff_dt_onset
#>    <chr>  <chr>         <fctr>         <int>
#> 1  SK_14 SK_113 Emergency room            10
#> 2  SK_14 SK_116 Emergency room            13
#> 3  SK_14  SK_41 Emergency room            14
#> 4  SK_14 SK_112 Emergency room            14
#> 5  SK_14 SK_100 Emergency room            15
#> 6  SK_14 SK_114 Emergency room            15
#> 7  SK_14 SK_136 Emergency room            15
#> 8  SK_14  SK_47 Emergency room            16
#> 9  SK_14 SK_110 Emergency room            16
#> 10 SK_14 SK_122 Emergency room            16
#> # ... with 88 more rows
…
