Handling, Visualisation and Analysis of Epidemiological Contacts • epicontacts
…
x <- make_epicontacts(linelist = mers_korea_2015$linelist,
                      contacts = mers_korea_2015$contacts, 
                      directed = TRUE)
x
#> 
#> /// Epidemiological Contacts //
#> 
#>   // class: epicontacts
#>   // 162 cases in linelist; 98 contacts;  directed 
#> 
#>   // linelist
#> 
#> # A tibble: 162 x 15
#>    id      age age_class sex   place_infect reporting_ctry loc_hosp
#>  * <chr> <int> <chr>     <fct> <fct>        <fct>          <fct>   
#>  1 SK_1     68 60-69     M     Middle East  South Korea    Pyeongt…
#>  2 SK_2     63 60-69     F     Outside Mid… South Korea    Pyeongt…
#>  3 SK_3     76 70-79     M     Outside Mid… South Korea    Pyeongt…
#>  4 SK_4     46 40-49     F     Outside Mid… South Korea    Pyeongt…
#>  5 SK_5     50 50-59     M     Outside Mid… South Korea    365 Yeo…
#>  6 SK_6     71 70-79     M     Outside Mid… South Korea    Pyeongt…
#>  7 SK_7     28 20-29     F     Outside Mid… South Korea    Pyeongt…
#>  8 SK_8     46 40-49     F     Outside Mid… South Korea    Seoul C…
#>  9 SK_9     56 50-59     M     Outside Mid… South Korea    Pyeongt…
#> 10 SK_10    44 40-49     M     Outside Mid… China          Pyeongt…
#> # ... with 152 more rows, and 8 more variables: dt_onset <date>,
#> #   dt_report <date>, week_report <fct>, dt_start_exp <date>,
#> #   dt_end_exp <date>, dt_diag <date>, outcome <fct>, dt_death <date>
#> 
#>   // contacts
#> 
#> # A tibble: 98 x 4
#>    from  to     exposure       diff_dt_onset
#>    <chr> <chr>  <fct>                  <int>
#>  1 SK_14 SK_113 Emergency room            10
#>  2 SK_14 SK_116 Emergency room            13
#>  3 SK_14 SK_41  Emergency room            14
#>  4 SK_14 SK_112 Emergency room            14
#>  5 SK_14 SK_100 Emergency room            15
#>  6 SK_14 SK_114 Emergency room            15
#>  7 SK_14 SK_136 Emergency room            15
#>  8 SK_14 SK_47  Emergency room            16
#>  9 SK_14 SK_110 Emergency room            16
#> 10 SK_14 SK_122 Emergency room            16
#> # ... with 88 more rows
…
