Visualising timed transmission trees using epicontacts • epicontacts
…
We begin with an epicontacts object, which consists of a linelist dataframe (specifying case IDs and any available case metadata) and a contacts dataframe (specifying pairs of IDs that have been in contact and any available properties of these contacts). For a detailed introduction to the epicontacts class, see the overview vignette.

For this vignette, we will use a simulated outbreak as an example dataset. The linelist dataframe contains anonymised case IDs, dates of symptom onset, age, sex and outcome for each case. The contacts dataframe specifies the infector and infectee in the from and to columns, as well as the contact status (suspected or confirmed), location of contact (community or hospital), duration of contact and date of first contact.

Below is an overview of the outbreak data as an epicontacts object.

## 
## /// Epidemiological Contacts //
## 
##   // class: epicontacts
##   // 41 cases in linelist; 41 contacts; directed 
## 
##   // linelist
## 
## # A tibble: 41 x 5
##    id    onset      sex      age outcome
##    <chr> <date>     <fct>  <dbl> <fct>  
##  1 iy4mz 2012-07-02 female  37.5 dead   
##  2 3lg6z 2012-07-05 female  41.3 alive  
##  3 01tkh 2012-07-05 male    15.6 unknown
##  4 2hydc 2012-07-10 female  42.2 alive  
##  5 o4yid 2012-07-11 male    25.8 dead   
##  6 donh0 2012-07-12 female  33.9 alive  
##  7 r3z1q 2012-07-16 female  68.1 alive  
##  8 n1o22 2012-07-16 female  45.6 unknown
##  9 uh307 2012-07-16 female  33.7 dead   
## 10 oau3c 2012-07-17 female  53.3 dead   
## # ... with 31 more rows
## 
##   // contacts
## 
## # A tibble: 41 x 6
##    from  to    status    location  duration date      
##    <chr> <chr> <fct>     <chr>        <dbl> <date>    
##  1 NA_1  iy4mz suspected community     7.14 2012-06-29
##  2 NA_2  3lg6z suspected hospital      7.96 2012-07-05
##  3 NA_3  01tkh confirmed hospital      6.90 2012-06-26
##  4 NA_4  2hydc confirmed hospital     13.4  2012-07-10
##  5 NA_5  o4yid confirmed community    16.6  2012-07-03
##  6 2hydc donh0 confirmed hospital     12.0  2012-07-11
##  7 o4yid r3z1q confirmed community     5.84 2012-07-12
##  8 01tkh n1o22 suspected community     9.80 2012-07-11
##  9 NA_6  uh307 confirmed hospital      5.49 2012-07-16
## 10 01tkh oau3c suspected hospital      6.65 2012-07-09
## # ... with 31 more rows
…
