`epicontacts` Class: Details Regarding the Data Structure for `epicontacts` Objects • epicontacts
…
print.epicontacts()

Using the name of an object (or the print() function explicitly) will invoke the print method in R. For the epicontacts data structure, printing is conveniently trimmed to show how many cases (rows in the line list) and how many contacts (rows in the contact list), as well as a glimpse of the first 10 rows of each data frame.

x

## 
## /// Epidemiological Contacts //
## 
##   // class: epicontacts
##   // 5,888 cases in linelist; 3,800 contacts;  directed 
## 
##   // linelist
## 
## # A tibble: 5,888 × 11
##    id     generation date_of_infection date_of_onset date_of_hospitalisation
##    <chr>       <int> <date>            <date>        <date>                 
##  1 d1fafd          0 NA                2014-04-07    2014-04-17             
##  2 53371b          1 2014-04-09        2014-04-15    2014-04-20             
##  3 f5c3d8          1 2014-04-18        2014-04-21    2014-04-25             
##  4 6c286a          2 NA                2014-04-27    2014-04-27             
##  5 0f58c4          2 2014-04-22        2014-04-26    2014-04-29             
##  6 49731d          0 2014-03-19        2014-04-25    2014-05-02             
##  7 f9149b          3 NA                2014-05-03    2014-05-04             
##  8 881bd4          3 2014-04-26        2014-05-01    2014-05-05             
##  9 e66fa4          2 NA                2014-04-21    2014-05-06             
## 10 20b688          3 NA                2014-05-05    2014-05-06             
## # ℹ 5,878 more rows
## # ℹ 6 more variables: date_of_outcome <date>, outcome <fct>, gender <fct>,
## #   hospital <fct>, lon <dbl>, lat <dbl>
## 
##   // contacts
## 
## # A tibble: 3,800 × 3
##    from   to     source 
##    <chr>  <chr>  <fct>  
##  1 d1fafd 53371b other  
##  2 cac51e f5c3d8 funeral
##  3 f5c3d8 0f58c4 other  
##  4 0f58c4 881bd4 other  
##  5 8508df 40ae5f other  
##  6 127d83 f547d6 funeral
##  7 f5c3d8 d58402 other  
##  8 20b688 d8a13d other  
##  9 2ae019 a3c8b8 other  
## 10 20b688 974bc1 other  
## # ℹ 3,790 more rows
…
